WAGAP-Poverty_and_Food-Report.utf8
…
## The following objects are masked from 'package:stats':
## 
##     chisq.test, fisher.test

## 
##  Column specification 
## cols(
##   .default = col_character(),
##   `Please enter the ZIP CODE for the community you live in:` = col_double(),
##   `How many people are in your household (sharing income and expenses)?` = col_double()
## )
##  Use `spec()` for the full column specifications.

## # A tibble: 625 x 29
##    q_1   q_2     q_3 q_4   q_5   q_6   q_7   q_8   q_9    q_10 q_11  q_12  q_13 
##    <chr> <chr> <dbl> <chr> <chr> <chr> <chr> <chr> <chr> <dbl> <chr> <chr> <chr>
##  1 10/0 Yes   98648 None  I ha No    <NA>  no    Yes      NA <NA>  <NA>  <NA> 
##  2 11/1 No    97058 Spor I ha Yes, Cost yes   Yes       2 Less Yes, Peop
##  3 10/0 Yes   98648 Comm Othe Yes, Cost no    Yes       1 $15, Yes, Peop
##  4 10/0 Yes   98648 Spor I ha Yes, Cost yes   Yes       1 $100 Yes, Good
##  5 10/0 Yes   98635 None  I am Yes, <NA>  no    No        1 Less Yes, <NA> 
##  6 10/1 No    97058 Comm I ha Yes, Cost no    Yes       2 $100 Yes, Peop
##  7 9/24 Yes   98650 Hobb I ha Yes, Cost no    Yes       2 $65, Yes, Peop
##  8 10/0 Yes   98648 Hobb I ha Yes, Cost yes   Yes       2 Less Yes, Wage
##  9 10/0 Yes   98610 None I ha Yes, Cost no    Yes       2 $65, Yes, Wage
## 10 10/0 Yes   98639 Fait I ha Yes, Cost yes   Yes       2 $65, Yes, We l
## #  with 615 more rows, and 16 more variables: q_14 <chr>, q_15 <chr>,
## #   q_16 <chr>, q_17 <chr>, q_18 <chr>, q_19 <chr>, q_20 <chr>, q_21 <chr>,
## #   q_22 <chr>, q_23 <chr>, q_24 <chr>, q_25 <chr>, q_26 <chr>, q_27 <chr>,
## #   q_28 <chr>, q_29 <chr>

survey respondent demographics

median_household_size
number_of_responses

2
625

## `summarise()` has grouped output by 'please_select_the_races_or_ethnicities_you_most_identify_with'. You can override using the `.groups` argument.

## # A tibble: 33 x 4
## # Groups:   please_select_the_races_or_ethnicities_you_most_identify_with [19]
##    please_select_the_race is_food_a_challeng median_househol number_of_respo
##    <chr>                   <chr>                          <dbl>            <int>
##  1 African American/Black  No                               2                  2
##  2 African American/Black  Yes, a BIG problem!              2                  1
##  3 African American/Black  Yes, somewhat                    4                  2
##  4 all                     Yes, somewhat                    2                  1
##  5 American                Yes, somewhat                    2                  1
##  6 Asian/Asian American    No                               4.5                2
##  7 Asian/Asian American    Yes, a BIG problem!              3                  1
##  8 Asian/Asian American    Yes, somewhat                    3                  3
##  9 Blue                    Yes, somewhat                    7                  1
## 10 Hispanic + Native Amer Yes, somewhat                    2                  1
## #  with 23 more rows
…
Food Security - who is struggling?

## # A tibble: 33 x 3
##    please_select_the_races_or_ethnicities_yo is_food_a_challenge_in_your     n
##    <chr>                                      <chr>                        <int>
##  1 African American/Black                     No                               2
##  2 African American/Black                     Yes, a BIG problem!              1
##  3 African American/Black                     Yes, somewhat                    2
##  4 all                                        Yes, somewhat                    1
##  5 American                                   Yes, somewhat                    1
##  6 Asian/Asian American                       No                               2
##  7 Asian/Asian American                       Yes, a BIG problem!              1
##  8 Asian/Asian American                       Yes, somewhat                    3
##  9 Blue                                       Yes, somewhat                    1
## 10 Hispanic + Native American                 Yes, somewhat                    1
## #  with 23 more rows
…
